{
    "key": "group_579d6c427318f",
    "title": "\u4e3b\u9898\u9009\u9879",
    "fields": [
        {
            "key": "field_579d6c59159c8",
            "label": "\u6eda\u52a8\u6761\u5185\u5bb9 (Incoming Events)",
            "name": "scroll_rep",
            "type": "repeater",
            "instructions": "",
            "required": 0,
            "conditional_logic": 0,
            "wrapper": {
                "width": "",
                "class": "",
                "id": ""
            },
            "collapsed": "",
            "min": "",
            "max": "",
            "layout": "table",
            "button_label": "\u6dfb\u52a0",
            "sub_fields": [
                {
                    "key": "field_579d6d1b0cf72",
                    "label": "\u6587\u5b57",
                    "name": "text",
                    "type": "text",
                    "instructions": "",
                    "required": 1,
                    "conditional_logic": "",
                    "wrapper": {
                        "width": "",
                        "class": "",
                        "id": ""
                    },
                    "default_value": "",
                    "placeholder": "",
                    "prepend": "",
                    "append": "",
                    "maxlength": "",
                    "readonly": 0,
                    "disabled": 0
                },
                {
                    "key": "field_579d6d300cf73",
                    "label": "\u94fe\u63a5",
                    "name": "url",
                    "type": "url",
                    "instructions": "",
                    "required": 0,
                    "conditional_logic": 0,
                    "wrapper": {
                        "width": "",
                        "class": "",
                        "id": ""
                    },
                    "default_value": "",
                    "placeholder": ""
                }
            ]
        }
    ],
    "location": [
        [
            {
                "param": "options_page",
                "operator": "==",
                "value": "theme-settings"
            }
        ]
    ],
    "menu_order": 0,
    "position": "normal",
    "style": "seamless",
    "label_placement": "top",
    "instruction_placement": "label",
    "hide_on_screen": "",
    "active": 1,
    "description": "",
    "modified": 1471325937
}